…
## Mammals Sleep
For this assignment, we are going to use built-in data on mammal sleep patterns.  

1. From which publication are these data taken from? Don't do an internet search; show the code that you would use to find out in R.


```r
# read the data first
msleep
```

```
## # A tibble: 83 x 11
##    name  genus vore  order conservation sleep_total sleep_rem sleep_cycle
##    <chr> <chr> <chr> <chr> <chr>              <dbl>     <dbl>       <dbl>
##  1 Chee~ Acin~ carni Carn~ lc                  12.1      NA        NA    
##  2 Owl ~ Aotus omni  Prim~ <NA>                17         1.8      NA    
##  3 Moun~ Aplo~ herbi Rode~ nt                  14.4       2.4      NA    
##  4 Grea~ Blar~ omni  Sori~ lc                  14.9       2.3       0.133
##  5 Cow   Bos   herbi Arti~ domesticated         4         0.7       0.667
##  6 Thre~ Brad~ herbi Pilo~ <NA>                14.4       2.2       0.767
##  7 Nort~ Call~ carni Carn~ vu                   8.7       1.4       0.383
##  8 Vesp~ Calo~ <NA>  Rode~ <NA>                 7        NA        NA    
##  9 Dog   Canis carni Carn~ domesticated        10.1       2.9       0.333
## 10 Roe ~ Capr~ herbi Arti~ lc                   3        NA        NA    
## # ... with 73 more rows, and 3 more variables: awake <dbl>, brainwt <dbl>,
## #   bodywt <dbl>
```
…
3. Make a new data frame focused on body weight, but be sure to indicate the common name and genus of each mammal. Sort the data in descending order by body weight.

```r
# practice with pipes, wish I was playing Smash Ultimate instead

IRL_yoshi_bodywt <-
  msleep %>%
  select (name, genus, bodywt)

IRL_yoshi_bodywt
```

```
## # A tibble: 83 x 3
##    name                       genus        bodywt
##    <chr>                      <chr>         <dbl>
##  1 Cheetah                    Acinonyx     50    
##  2 Owl monkey                 Aotus         0.48 
##  3 Mountain beaver            Aplodontia    1.35 
##  4 Greater short-tailed shrew Blarina       0.019
##  5 Cow                        Bos         600    
##  6 Three-toed sloth           Bradypus      3.85 
##  7 Northern fur seal          Callorhinus  20.5  
##  8 Vesper mouse               Calomys       0.045
##  9 Dog                        Canis        14    
## 10 Roe deer                   Capreolus    14.8  
## # ... with 73 more rows
```


```r
# sort in descending order

IRL_yoshi_bodywt[order(-IRL_yoshi_bodywt$bodywt),]
```

```
## # A tibble: 83 x 3
##    name                 genus         bodywt
##    <chr>                <chr>          <dbl>
##  1 African elephant     Loxodonta      6654 
##  2 Asian elephant       Elephas        2547 
##  3 Giraffe              Giraffa         900.
##  4 Pilot whale          Globicephalus   800 
##  5 Cow                  Bos             600 
##  6 Horse                Equus           521 
##  7 Brazilian tapir      Tapirus         208.
##  8 Donkey               Equus           187 
##  9 Bottle-nosed dolphin Tursiops        173.
## 10 Tiger                Panthera        163.
## # ... with 73 more rows
```
4. We are interested in two groups; small and large mammals. Let's define small as less than or equal to 1kg body weight and large as greater than or equal to 200kg body weight. For our study, we are interested in body weight and sleep total.
Make two new objects (large and small) based on these parameters. Sort the data in descending order by body weight.


```r
# small group

small_group <- msleep %>%
  select(sleep_total, bodywt)%>%
  filter(bodywt <= 1) 
small_group
```

```
## # A tibble: 36 x 2
##    sleep_total bodywt
##          <dbl>  <dbl>
##  1        17    0.48 
##  2        14.9  0.019
##  3         7    0.045
##  4         9.4  0.728
##  5        12.5  0.42 
##  6        10.3  0.06 
##  7         8.3  1    
##  8         9.1  0.005
##  9        19.7  0.023
## 10        10.1  0.77 
## # ... with 26 more rows
```

```r
small_group[order(-small_group$bodywt),]
```

```
## # A tibble: 36 x 2
##    sleep_total bodywt
##          <dbl>  <dbl>
##  1         8.3  1    
##  2        16.6  0.92 
##  3        15.6  0.9  
##  4        10.1  0.77 
##  5         9.6  0.743
##  6         9.4  0.728
##  7        10.3  0.55 
##  8        17    0.48 
##  9        12.5  0.42 
## 10        19.4  0.37 
## # ... with 26 more rows
```
…
