…
# select()
Select allows you to build a new data frame by selecting your columns (variables) of interest. Our fish data only has six columns, but this should give you some ideas especially when you have large data frames with lots of columns.  

We are only interested in lakeid and scalelength.

```
## # A tibble: 4,033 x 2
##    lakeid scalelength
##    <chr>        <dbl>
##  1 AL            2.70
##  2 AL            2.70
##  3 AL            2.70
##  4 AL            3.02
##  5 AL            3.02
##  6 AL            3.02
##  7 AL            3.02
##  8 AL            3.34
##  9 AL            3.34
## 10 AL            3.34
## # ... with 4,023 more rows
```

The `-` operator is useful in select. It allows us to select everything except the specified variables.

```
## # A tibble: 4,033 x 2
##    lakeid scalelength
##    <chr>        <dbl>
##  1 AL            2.70
##  2 AL            2.70
##  3 AL            2.70
##  4 AL            3.02
##  5 AL            3.02
##  6 AL            3.02
##  7 AL            3.02
##  8 AL            3.34
##  9 AL            3.34
## 10 AL            3.34
## # ... with 4,023 more rows
```

For very large data frames with lots of variables, `select()` uses many different operators to make things easier. Let's say we are only interested in the variables that deal with length.

```
## # A tibble: 4,033 x 3
##    length radii_length_mm scalelength
##     <dbl>           <dbl>       <dbl>
##  1    167            2.70        2.70
##  2    167            2.04        2.70
##  3    167            1.31        2.70
##  4    175            3.02        3.02
##  5    175            2.67        3.02
##  6    175            2.14        3.02
##  7    175            1.23        3.02
##  8    194            3.34        3.34
##  9    194            2.97        3.34
## 10    194            2.29        3.34
## # ... with 4,023 more rows
```
…
## Practice: select()

1. What are the names of the columns in the `fish` data?

```
## [1] "lakeid"          "fish_id"         "annnumber"       "length"         
## [5] "radii_length_mm" "scalelength"
```

2. We are only interested in the variables `lakeid`, `length`, and `scalelength`. Use `select()` to build a new dataframe focused on these variables.


```
## # A tibble: 4,033 x 3
##    lakeid length scalelength
##    <chr>   <dbl>       <dbl>
##  1 AL        167        2.70
##  2 AL        167        2.70
##  3 AL        167        2.70
##  4 AL        175        3.02
##  5 AL        175        3.02
##  6 AL        175        3.02
##  7 AL        175        3.02
##  8 AL        194        3.34
##  9 AL        194        3.34
## 10 AL        194        3.34
## # ... with 4,023 more rows
```


## Dplyr: Can we combine filter() and select()?
Absolutely. This is one of the strengths of the tidyverse, it uses the same grammar to specify commands.



```
## # A tibble: 383 x 2
##    lakeid scalelength
##    <chr>        <dbl>
##  1 AL            2.70
##  2 AL            2.70
##  3 AL            2.70
##  4 AL            3.02
##  5 AL            3.02
##  6 AL            3.02
##  7 AL            3.02
##  8 AL            3.34
##  9 AL            3.34
## 10 AL            3.34
## # ... with 373 more rows
```

# Combine filter() and select() using a pipe
The code above works fine but there is a more efficient way. We need to learn pipes `%>%`. Pipes allow you to feed the output from one function to the input of another function. We are going to use pipes from here on to keep things cleaner. (command+shift+m)

```
## # A tibble: 383 x 2
##    lakeid scalelength
##    <chr>        <dbl>
##  1 AL            2.70
##  2 AL            2.70
##  3 AL            2.70
##  4 AL            3.02
##  5 AL            3.02
##  6 AL            3.02
##  7 AL            3.02
##  8 AL            3.34
##  9 AL            3.34
## 10 AL            3.34
## # ... with 373 more rows
```


# Practice
1. Build a dataframe focused on the lakes `AL` and `AR` and looking at radii length between 2 and 4 only. Use pipes!


```
## # A tibble: 69 x 2
##    lakeid scalelength
##    <chr>        <dbl>
##  1 AL            2.70
##  2 AL            2.70
##  3 AL            2.70
##  4 AL            3.02
##  5 AL            3.02
##  6 AL            3.02
##  7 AL            3.02
##  8 AL            3.34
##  9 AL            3.34
## 10 AL            3.34
## # ... with 59 more rows
```

## Other functions in dplyr
> Note: Make sure to do reality checks to see if filters are working (like if it's within certain numbers)

#arrange(): allows us to sort values in a column.
Arrange in desc order

```
## # A tibble: 4,033 x 6
##    lakeid fish_id annnumber length radii_length_mm scalelength
##    <chr>    <dbl> <chr>      <dbl>           <dbl>       <dbl>
##  1 WS         180 EDGE         403           11.0         11.0
##  2 WS         180 16           403           10.6         11.0
##  3 WS         180 15           403           10.3         11.0
##  4 WS         180 14           403            9.93        11.0
##  5 WS         180 13           403            9.56        11.0
##  6 WS         180 12           403            9.17        11.0
##  7 WS         180 11           403            8.62        11.0
##  8 WS         180 10           403            8.15        11.0
##  9 WS         180 9            403            7.49        11.0
## 10 WS         180 8            403            6.97        11.0
## # ... with 4,023 more rows
```

Can also arrange characters (will sort alphabetically)

```
## # A tibble: 4,033 x 6
##    lakeid fish_id annnumber length radii_length_mm scalelength
##    <chr>    <dbl> <chr>      <dbl>           <dbl>       <dbl>
##  1 AL         299 EDGE         167            2.70        2.70
##  2 AL         299 2            167            2.04        2.70
##  3 AL         299 1            167            1.31        2.70
##  4 AL         300 EDGE         175            3.02        3.02
##  5 AL         300 3            175            2.67        3.02
##  6 AL         300 2            175            2.14        3.02
##  7 AL         300 1            175            1.23        3.02
##  8 AL         301 EDGE         194            3.34        3.34
##  9 AL         301 3            194            2.97        3.34
## 10 AL         301 2            194            2.29        3.34
## # ... with 4,023 more rows
```

It can be very helpful in combination with the other functions.

```
## # A tibble: 383 x 4
##    lakeid length fish_id scalelength
##    <chr>   <dbl>   <dbl>       <dbl>
##  1 AL        167     299        2.70
##  2 AL        167     299        2.70
##  3 AL        167     299        2.70
##  4 AL        175     300        3.02
##  5 AL        175     300        3.02
##  6 AL        175     300        3.02
##  7 AL        175     300        3.02
##  8 AL        194     301        3.34
##  9 AL        194     301        3.34
## 10 AL        194     301        3.34
## # ... with 373 more rows
```
…
#mutate(): Can create new col in df
`mutate()` is used to add new columns to a data frame. When you use mutate() the original data used are preserved. We will briefly practice `mutate()` here and come back to it in more detail later.  

```
## # A tibble: 383 x 5
##    lakeid fish_id scalelength length scale_ratio
##    <chr>    <dbl>       <dbl>  <dbl>       <dbl>
##  1 AL         299        2.70    167        61.9
##  2 AL         299        2.70    167        61.9
##  3 AL         299        2.70    167        61.9
##  4 AL         300        3.02    175        58.0
##  5 AL         300        3.02    175        58.0
##  6 AL         300        3.02    175        58.0
##  7 AL         300        3.02    175        58.0
##  8 AL         301        3.34    194        58.0
##  9 AL         301        3.34    194        58.0
## 10 AL         301        3.34    194        58.0
## # ... with 373 more rows
```


```
## [1] "lakeid"          "fish_id"         "annnumber"       "length"         
## [5] "radii_length_mm" "scalelength"
```

## Practice
1. Add a new column to the fish data that is radii_length_mm divided by scalelength. Add another column that scales this number to a percentage.

```
## # A tibble: 4,033 x 4
##    radii_length_mm scalelength radii_length_ratio radii_length_ratio_per
##              <dbl>       <dbl>              <dbl>                  <dbl>
##  1            2.70        2.70              1                      100  
##  2            2.04        2.70              0.755                   75.5
##  3            1.31        2.70              0.486                   48.6
##  4            3.02        3.02              1                      100  
##  5            2.67        3.02              0.886                   88.6
##  6            2.14        3.02              0.709                   70.9
##  7            1.23        3.02              0.408                   40.8
##  8            3.34        3.34              1                      100  
##  9            2.97        3.34              0.888                   88.8
## 10            2.29        3.34              0.686                   68.6
## # ... with 4,023 more rows
```
…
