…
>Note: if num col called charac, usually b/c of unaddressed NA's


```r
carni_mammals <- 
  homerange %>% 
  filter(taxon=="mammals", trophic.guild=="carnivore")
carni_mammals
```

```
## # A tibble: 80 x 24
##    taxon common.name class order family genus species primarymethod N    
##    <chr> <chr>       <chr> <chr> <chr>  <chr> <chr>   <chr>         <chr>
##  1 mamm~ giant gold~ mamm~ afro~ chrys~ chry~ trevel~ telemetry*    <NA> 
##  2 mamm~ Grant's go~ mamm~ afro~ chrys~ erem~ granti  telemetry*    <NA> 
##  3 mamm~ arctic fox  mamm~ carn~ canid~ alop~ lagopus telemetry*    <NA> 
##  4 mamm~ Ethiopian ~ mamm~ carn~ canid~ canis simens~ telemetry*    <NA> 
##  5 mamm~ culpeo      mamm~ carn~ canid~ pseu~ culpae~ telemetry*    <NA> 
##  6 mamm~ South Amer~ mamm~ carn~ canid~ pseu~ griseus telemetry*    <NA> 
##  7 mamm~ kit fox     mamm~ carn~ canid~ vulp~ macroti telemetry*    <NA> 
##  8 mamm~ Ruppel's f~ mamm~ carn~ canid~ vulp~ ruppel~ telemetry*    <NA> 
##  9 mamm~ swift fox   mamm~ carn~ canid~ vulp~ velox   telemetry*    <NA> 
## 10 mamm~ fossa       mamm~ carn~ euple~ cryp~ ferox   telemetry*    <NA> 
## # ... with 70 more rows, and 15 more variables: mean.mass.g <dbl>,
## #   log10.mass <dbl>, alternative.mass.reference <chr>, mean.hra.m2 <dbl>,
## #   log10.hra <dbl>, hra.reference <chr>, realm <chr>,
## #   thermoregulation <chr>, locomotion <chr>, trophic.guild <chr>,
## #   dimension <chr>, preymass <dbl>, log10.preymass <dbl>, PPMR <dbl>,
## #   prey.size.reference <chr>
```
…
### Practice: Box Plots
1. What do you think those solid lines represent in the box plot above? Use `count` to determine which families have the largest and smallest sample sizes.

```r
homerange %>% 
  count(family) %>% 
  arrange(desc(n))
```

```
## # A tibble: 150 x 2
##    family           n
##    <chr>        <int>
##  1 sciuridae       25
##  2 colubridae      22
##  3 cricetidae      20
##  4 bovidae         19
##  5 felidae         19
##  6 serranidae      18
##  7 accipitridae    16
##  8 mustelidae      15
##  9 viperidae       15
## 10 labridae        14
## # ... with 140 more rows
```

```r
homerange %>% 
  count(family) %>% 
  arrange((n))
```

```
## # A tibble: 150 x 2
##    family             n
##    <chr>          <int>
##  1 acrocephalisae     1
##  2 aegithalidae       1
##  3 agamidae           1
##  4 ailuridae          1
##  5 alaudidae          1
##  6 anatidae           1
##  7 anguillidae        1
##  8 antilocapridae     1
##  9 aplodontiidae      1
## 10 apterygidae        1
## # ... with 140 more rows
```
…
