…
6. Which cities in California have the highest number of colleges?

```r
colleges %>% 
  count(CITY) %>% 
  arrange(desc(n))
```

```
## # A tibble: 161 x 2
##    CITY              n
##    <chr>         <int>
##  1 Los Angeles      24
##  2 San Diego        18
##  3 San Francisco    15
##  4 Sacramento       10
##  5 Berkeley          9
##  6 Oakland           9
##  7 Claremont         7
##  8 Pasadena          6
##  9 Fresno            5
## 10 Irvine            5
## # ... with 151 more rows
```
> Los Angeles has highest number of colleges

7. The column `COSTT4_A` is the annual cost of each institution. Which city has the highest cost?

```r
colleges %>%
  select(CITY, COSTT4_A) %>% 
  arrange(COSTT4_A)
```

```
## # A tibble: 341 x 2
##    CITY      COSTT4_A
##    <chr>        <dbl>
##  1 El Cajon      7956
##  2 Visalia       8109
##  3 San Mateo     8278
##  4 Ventura       8407
##  5 Oxnard        8516
##  6 Moorpark      8577
##  7 San Bruno     8580
##  8 Glendale      9181
##  9 Glendora      9281
## 10 Fresno        9370
## # ... with 331 more rows
```
…
10. Use `separate()` to separate institution name into two new columns "UNIV" and "CAMPUS".

```r
separate(colleges, INSTNM, c("UNIV", "CAMPUS"), sep=",")
```

```
## Warning: Expected 2 pieces. Missing pieces filled with `NA` in 341 rows [1,
## 2, 3, 4, 5, 6, 7, 8, 9, 10, 11, 12, 13, 14, 15, 16, 17, 18, 19, 20, ...].
```

```
## # A tibble: 341 x 11
##    UNIV  CAMPUS CITY  STABBR ZIP   ADM_RATE SAT_AVG PCIP26 COSTT4_A
##    <chr> <chr>  <chr> <chr>  <chr>    <dbl>   <dbl>  <dbl>    <dbl>
##  1 Gros~ <NA>   El C~ CA     9202~       NA      NA 0.0016     7956
##  2 Coll~ <NA>   Visa~ CA     9327~       NA      NA 0.0066     8109
##  3 Coll~ <NA>   San ~ CA     9440~       NA      NA 0.0038     8278
##  4 Vent~ <NA>   Vent~ CA     9300~       NA      NA 0.0035     8407
##  5 Oxna~ <NA>   Oxna~ CA     9303~       NA      NA 0.0085     8516
##  6 Moor~ <NA>   Moor~ CA     9302~       NA      NA 0.0151     8577
##  7 Skyl~ <NA>   San ~ CA     9406~       NA      NA 0          8580
##  8 Glen~ <NA>   Glen~ CA     9120~       NA      NA 0.002      9181
##  9 Citr~ <NA>   Glen~ CA     9174~       NA      NA 0.0021     9281
## 10 Fres~ <NA>   Fres~ CA     93741       NA      NA 0.0324     9370
## # ... with 331 more rows, and 2 more variables: C150_4_POOLED <dbl>,
## #   PFTFTUG1_EF <dbl>
```
…
